1 a
2 b
3 asd
4 cat
5 dog
6 item
7 it
8 sample
9 test
10 money
11 pay
12 opportunity
13 help
14 sale
15 super
16 store
17 promotion
18 hello
19 click
20 subscribe
21 cash
22 best
23 site
24 private
25 special
26 public
27 car